[gd_scene load_steps=2 format=3 uid="uid://2ogvqq6i5wvh"]

[sub_resource type="RectangleShape2D" id="RectangleShape2D_6peih"]
size = Vector2(3138, 20)

[node name="DeathZone" type="Area2D"]
position = Vector2(850, 284)
collision_layer = 4
collision_mask = 2

[node name="CollisionShape2D" type="CollisionShape2D" parent="."]
shape = SubResource("RectangleShape2D_6peih")
